{
	"fontName" : "DefaultFont",
	"spriteSheet":"./gfx/defaultSpriteFont.png",
	"maxSpriteWidth":8,
	"maxSpriteHeight":12,
	"characters":{
		"0":[0,12,6,12],
		"1":[8,12,5,12],
		"2":[16,12,6,12],
		"3":[24,12,6,12],
		"4":[32,12,6,12],
		"5":[40,12,6,12],
		"6":[48,12,6,12],
		"7":[56,12,6,12],
		"8":[64,12,6,12],
		"9":[72,12,6,12],
		" ":[0,0,6,12],
		"!":[8,0,3,12],
		"\"":[16,0,5,12],
		"#":[24,0,7,12],
		"$":[32,0,7,12],
		"%":[40,0,8,12],
		"&":[48,0,7,12],
		"'":[56,0,3,12],
		"(":[64,0,5,12],
		")":[72,0,5,12],
		"*":[79,0,7,12],
		"+":[88,0,7,12],
		",":[96,0,4,12],
		"-":[104,0,7,12],
		".":[112,0,3,12],
		"/":[120,0,6,12],
		":":[80,12,3,12],
		";":[88,12,4,12],
		"<":[96,12,6,12],
		"=":[104,12,6,12],
		">":[112,12,6,12],
		"?":[120,12,7,12],
		"@":[0,24,7,12],
		"A":[8,24,7,12],
		"B":[16,24,6,12],
		"C":[24,24,6,12],
		"D":[32,24,6,12],
		"E":[40,24,6,12],
		"F":[48,24,6,12],
		"G":[56,24,6,12],
		"H":[64,24,6,12],
		"I":[72,24,6,12],
		"J":[80,24,6,12],
		"K":[88,24,6,12],
		"L":[96,24,6,12],
		"M":[104,24,7,12],
		"N":[112,24,7,12],
		"O":[120,24,7,12],
		"P":[0,36,6,12],
		"Q":[8,36,7,12],
		"R":[16,36,6,12],
		"S":[24,36,6,12],
		"T":[32,36,7,12],
		"U":[40,36,6,12],
		"V":[48,36,7,12],
		"W":[56,36,7,12],
		"X":[64,36,7,12],
		"Y":[72,36,7,12],
		"Z":[80,36,6,12],
		"[":[88,36,5,12],
		"\\":[96,36,6,12],
		"]":[104,36,5,12],
		"^":[112,36,7,12],
		"_":[120,36,6,12],
		"`":[0,48,5,12],
		"a":[8,48,7,12],
		"b":[16,48,6,12],
		"c":[24,48,6,12],
		"d":[32,48,6,12],
		"e":[40,48,6,12],
		"f":[48,48,5,12],
		"g":[56,48,6,12],
		"h":[64,48,6,12],
		"i":[72,48,3,12],
		"j":[80,48,4,12],
		"k":[88,48,6,12],
		"l":[96,48,3,12],
		"m":[104,48,7,12],
		"n":[112,48,6,12],
		"o":[120,48,6,12],
		"p":[0,60,6,12],
		"q":[8,60,7,12],
		"r":[16,60,6,12],
		"s":[24,60,6,12],
		"t":[32,60,6,12],
		"u":[40,60,6,12],
		"v":[48,60,7,12],
		"w":[56,60,7,12],
		"x":[64,60,7,12],
		"y":[72,60,7,12],
		"z":[80,60,6,12],
		"{":[88,60,5,12],
		"|":[96,60,3,12],
		"}":[104,60,5,12],
		"~":[112,60,7,12]
	}
}